"mailing_type";"send_month";"opt_net";"or";"ctr";"unsubs";"crm_tix";"crm_tix_direct";"combined_tix"
"birthday";201901;36066;0,271003160871735;0,0390949925137248;0,000526811955858704;453;198;221
"birthday";201902;15816;0,302162367223065;0,0425518462316641;0,000189681335356601;265;103;105
"birthday";201903;10006;0,327803318009195;0,0396761942834299;0,000499700179892065;172;63;65
"birthday";201904;18486;0,314129611597966;0,0392729633235962;0,000378664935626961;243;100;106
"birthday";201905;51333;0,273313463074436;0,0273118656614653;0,00060390002532484;359;139;145
"birthday";201906;55810;0,2193872065938;0,0214477692169862;0,000698799498297796;192;81;101
"birthday";201907;33856;0,304229678638941;0,0244565217391304;0,00112240075614367;165;69;89
"birthday";201908;29497;0,275553446113164;0,0227141743228125;0,00118656134522155;106;40;47
"birthday";201909;28130;0,210238179879133;0,0193743334518308;0,000888730892285816;106,3;55;64
"birthday";201910;13478;0,252411336993619;0,0227036652322303;0,00185487461047633;42,3;21;25
"birthday";201911;2247;0,20115709835336;0,0195816644414775;0,00133511348464619;6;4;4
"cart abandonment";201901;2247;0,571428571428572;0,10636404094348;0,00311526479750779;231,32;59;231
"cart abandonment";201902;2260;0,588938053097345;0,10929203539823;0,00309734513274336;282;63;282
"cart abandonment";201903;2871;0,512016718913271;0,0874259839777081;0,00139324277255312;299;81;299
"cart abandonment";201904;1898;0,504741833508957;0,09536354056902;0,00105374077976818;193;46;193
"cart abandonment";201905;1446;0,585753803596127;0,0885200553250346;0,00345781466113416;176;28;176
"cart abandonment";201906;954;0,530398322851153;0,0985324947589098;0,00209643605870021;126;25;126
"cart abandonment";201907;3395;0,402356406480118;0,0541973490427099;0,00235640648011782;201;72;201
"cart abandonment";201908;3861;0,368039368039368;0,044030044030044;0,00284900284900285;167;65;167
"cart abandonment";201909;2912;0,391483516483516;0,0587225274725275;0,00309065934065934;214,44;78;214
"cart abandonment";201910;1018;0,546168958742633;0,12770137524558;0,00392927308447937;183,62;90;185
"cart abandonment";201911;286;0,534965034965035;0,108391608391608;0,0034965034965035;26,28;17;27
"cinema";201901;1534087;0,139072295117552;0,00621933436630387;0,0010129803590018;0;0;0
"cinema";201902;1404320;0,171654608636208;0,00763429987467244;0,00124900307622194;0;0;0
"cinema";201903;2174305;0,164564768972154;0,00777719777124185;0,00134433761592785;0;0;0
"cinema";201904;1187242;0,144987289870136;0,0061301739662175;0,00129375476945728;0;0;0
"cinema";201905;2659142;0,125130211173378;0,00325104864651831;0,00208751544671176;0;0;0
"cinema";201906;2318883;0,140564228553144;0,00677740101592017;0,00198759488943599;0;0;5
"cinema";201907;1626644;0,137548228131048;0,00504597195206818;0,00192728095391493;0;0;0
"cinema";201908;1681476;0,118153336711318;0,00400362538626778;0,0016872081433217;0;0;6
"cinema";201909;1557870;0,183772073407922;0,00603837290659683;0,00261382528709071;0;0;0
"cinema";201910;4784002;0,157168412555011;0,0141249940949021;0,00194167979026765;0;0;12
"insider";201901;193002,3125;0,13009623913185;0,0140950383690351;0,00114538783052146;3604,18;975;3605
"insider";201902;157972,3125;0,12723392588179;0,0137555750473679;0,000951116038134847;3273,16;1032;3274
"insider";201903;144970,1875;0,12383192578819;0,0102822864873511;0,000949333117196941;2294,94;640;2295
"insider";201904;231354,6875;0,132224736099198;0,0114318517968217;0,00120134803838803;3526;1019;3526
"insider";201905;195853,375;0,122805198021224;0,00772101833833601;0,00178417910847847;1698;467;1698
"insider";201906;154863,05;0,123367388153598;0,00871059946191167;0,00142416154143936;2117,98;492;2118
"insider";201907;210238,714285714;0,123629307546773;0,0107410782255907;0,00159886278930549;2500;679;2500
"insider";201908;158962,65;0,11528431364223;0,0112712011280637;0,00156483299693356;2210,32;538;2210
"insider";201909;193091,625;0,0975178234685217;0,00996806567866421;0,00161840266246659;2017,14;602;2020
"insider";201910;232045,75;0,124635982343999;0,0121118357048125;0,00167477749538615;1455,84;469;1456
"insider";201911;52776,25;0,182674498472324;0,0120674545842116;0,00182610549252742;122,28;74;122
"regio";201901;114572,954545455;0,123408467411594;0,0102423822852053;0,000987858073756102;2716,16;1075;2716
"regio";201902;142897,9375;0,126953371877743;0,00968173525947497;0,000925048340883157;2195;804;2195
"regio";201903;125362,583333333;0,125418868335914;0,00935419991743948;0,00100641406161195;1120;452;1120
"regio";201904;108973,166666667;0,114077012842611;0,00783220334057773;0,000969657668019191;458;156;458
"regio";201905;188126,888888889;0,116502927693011;0,00583648624864306;0,00147477293694209;933;286;933
"regio";201906;136896,166666667;0,100527528771806;0,00492222207342061;0,0012259900143296;375,32;134;375
"regio";201907;125819,666666667;0,191155860636519;0,0161593709515471;0,00231150932949009;712;306;712
"regio";201908;61889,1666666667;0,175770306237405;0,0156444540195062;0,00234200026032199;974;504;974
"regio";201909;80563,5;0,177441810911062;0,0123618843107197;0,0021515119543383;671,38;295;671
"regio";201910;52238,3333333333;0,212730115177233;0,0165370258111859;0,00312541875378873;677,06;366;678
"rest";201901;3730;0,347721179624665;0,0683646112600536;0;0;0;7
"rest";201902;5585;0,454073410922113;0,155953446732319;0,00232766338406446;0;0;267
"rest";201903;4743;0,370440649378031;0,0491250263546279;0,00210837022981235;0;0;50
"rest";201904;386022;0,202149100310345;0,0134707348285849;0,00324851951443182;0;0;36
"rest";201905;16357;0,335513847282509;0,10368649507856;0,00207862077398056;0;0;0
"rest";201906;25016;0,324432363287496;0,0431323952670291;0,00139910457307323;0;0;48
"rest";201907;26894;0,387930393396297;0,0504573510820257;0,00145013757715476;0;0;63
"rest";201908;2365;0,304016913319239;0,0338266384778013;0,00465116279069767;0;0;0
"rest";201909;5249;0,303295865879215;0,0350542960563917;0,00114307487140408;0;0;0
"rest";201910;25015;0,360343793723766;0,102378572856286;0,0027583449930042;0;0;31
"rest";201911;28760;0,290229485396384;0,0305980528511822;0,0133866481223922;0;0;1
"similar";201903;11118;0,23511422917791;0,0279726569526893;0,00134916351861846;30;22;30
"similar";201904;132985;0,175433319547317;0,00628642328082115;0,00167688085122382;118;24;118
"similar";201905;689862;0,136133023706191;0,00484734628085037;0,00162351310841879;250,64;133;251
"similar";201906;26880;0,158630952380952;0,0104166666666667;0,00148809523809524;35;21;35
"similar";201908;228672;0,179536628883291;0,00821263643996641;0,0023395955779457;46;17;46
"similar";201909;223361;0,220530889456978;0,0117030278338654;0,00243551918195209;274,56;86;275
"similar";201910;256135;0,196357389657798;0,0157182735666738;0,00210826322056728;526,8;260;527
"special";201901;3922052;0,158435941185889;0,00981679998123431;0,00104129165039117;3263,74;1328,18;6158
"special";201902;5191158;0,170219053243997;0,0120672497350302;0,00192500401644489;3352,1864;2010,29;6325
"special";201903;5504708;0,143008675482878;0,0110934131292704;0,00108234623889224;4466,9142;2209,57;8428
"special";201904;6085549;0,164490171716636;0,00890798841649291;0,00204681615413827;2685,1496;1186,67;5066
"special";201905;4537419;0,144317066596671;0,00658281723596609;0,0025014220639531;1896,5096;547,49;3578
"special";201906;4717843;0,130500315504352;0,00635438695183371;0,00188285197281893;791,3748;314,29;1494
"special";201907;2080277;0,123726311447947;0,00805133162554794;0,00183004474884835;375,9396;232,14;709
"special";201908;1067399;0,115150941681602;0,00833521485405177;0,00150084457639552;522,3892;273,48;986
"special";201909;1978908;0,152493698544854;0,00969979402781736;0,00189346851900139;580,4666;314,29;1095
"special";201910;4055922;0,175766200632063;0,0098806140749255;0,00228825899511874;1188,1752;599,43;2245
"special";201911;1270769;0,124723690930452;0,00767409340328573;0,0014794191548582;109,4132;77,38;207
