"mailing_type";"send_month";"opt_net";"or";"ctr";"unsubs";"crm_tix";"crm_tix_direct";"combined_tix"
"cinema";201901;306817,4;0,139072295117552;0,006219334366304;3,78075037465281e-05;0;0;0
"cinema";201902;351080,25;0,171654486403037;0,00763429443838;3,56043952913899e-05;0;0;0
"cinema";201903;310615,142857143;0,164564693286042;0,007777194194377;5,28904395241516e-05;0;0;0
"cinema";201904;395747,333333333;0,144987289870136;0,006130173966218;4,12721248069054e-05;0;0;0
"cinema";201905;295460,222222222;0,125130211173378;0,003251048646518;5,22724999266681e-05;0;0;0
"cinema";201906;386480,666666667;0,140564167935955;0,006777398093221;0,000100910610449;0;0;5
"cinema";201907;125126,461538462;0,137548228131048;0,005045971952068;0,000689148947157;0;0;0
"cinema";201908;105092,25;0,118153336711318;0,004003625386268;0,000984254309904;0;0;4
"cinema";201909;129822,5;0,179186324917997;0,005869552658437;0,002553486491171;0;0;0
"insider";201901;193002,3125;0,13009623913185;0,014095038369035;7,15665000127913e-05;2896,82;967;2898
"insider";201902;157972,3125;0,12723392588179;0,013755575047368;6,21153153024838e-05;2659,62;1010;2660
"insider";201903;144970,1875;0,12383192578819;0,010282286487351;5,60460060107186e-05;1858,2;632;1856
"insider";201904;231354,8125;0,132224664658748;0,011431845620242;8,21249395881921e-05;2842,42;1013;2841
"insider";201905;195853,375;0,122805198021224;0,007721018338336;9,41393019139956e-05;1373,42;461;1374
"insider";201906;154863,05;0,123367388153598;0,008710599461912;0,000483653137401;1659,74;488;1659
"insider";201907;210238,761904762;0,123629279544753;0,010741075792738;0,001588669934002;2036,7;672;2037
"insider";201908;158962,7;0,115284277380794;0,011271197582829;0,001554452711234;1959,88;536;1960
"insider";201909;193091,625;0,094305617864058;0,009728218404087;0,001578266276437;1636,64;544;1638
"regio";201901;114572,954545455;0,123408467411594;0,010242382285205;4,76076180123423e-05;2311,36;1071;2313
"regio";201902;142897,9375;0,126953371877743;0,009681735259475;5,11728869424725e-05;1858,66;801;1859
"regio";201903;125362,583333333;0,125418868335914;0,009354199917439;4,52022167698895e-05;965,26;452;965
"regio";201904;108973,166666667;0,114077012842611;0,007832203340578;4,58828549535895e-05;386,22;156;386
"regio";201905;188126,888888889;0,116502927693011;0,005836486248643;7,85521828647568e-05;767,8;284;768
"regio";201906;136896,166666667;0,100527528771806;0,004922222073421;5,84384515271307e-05;315,18;134;316
"regio";201907;125819,666666667;0,191155860636519;0,016159370951547;0,002295613563327;625,7;293;625
"regio";201908;61889,1666666667;0,175770306237405;0,015644454019506;0,002313275075067;947,1;498;947
"regio";201909;80563,5;0,176385708168091;0,012309130892609;0,002151511954338;629,98;295;630
"similar";201903;5559;0,23511422917791;0,027972656952689;8,99442345745638e-05;26;22;29
"similar";201904;66492,5;0,175433319547317;0,006286423280821;9,02357408730308e-05;0;0;97
"similar";201905;98551,7142857143;0,136133023706191;0,00484734628085;4,05878277104696e-05;0;0;234
"similar";201906;13440;0,158630952380952;0,010416666666667;0;0;0;34
"similar";201908;57168;0,179536628883291;0,008212636439966;0,002339595577946;0;0;46
"similar";201909;31908,7142857143;0,214267486266627;0,011295615617767;0,002359409207516;0;0;180
"special";201901;71310,0363636364;0,158435941185889;0,009816799981234;3,6970443023193e-05;2773,0554;1316,52;5232
"special";201902;21188,4;0,170219053243997;0,01206724973503;0,000122708651904;3112,0116;1980,61;5873
"special";201903;11712,1468085106;0,143008649503543;0,011093411114012;4,25090590619777e-05;4056,991;2187,84;7653
"special";201904;20628,979661017;0,164490171716636;0,008907988416493;7,64105259854123e-05;2419,0578;1174,48;4565
"special";201905;21504,3601895735;0,144317034790696;0,006582815785182;8,30868643414099e-05;1525,0008;544,31;2876
"special";201906;89015,9056603774;0,130500315504352;0,006354386951834;0,000503619980572;741,4806;313,23;1400
"special";201907;27737,0266666667;0,123726311447947;0,008051331625548;0,001308960297114;350,012;229,49;661
"special";201908;12411,6162790698;0,115150941681602;0,008335214854052;0,001484918010978;513,2202;270,3;970
"special";201909;37337,8867924528;0,148790140825142;0,009369308729865;0,001851020866053;473,1522;295,74;892
