"month";"genre";"i_status";"f_status";"count"
"201910";"total";"i_subscriber";"f_dead";73
"201910";"total";"i_other";"f_unsubscribed";10
"201910";"total";"i_visitor";"f_other";6
"201910";"total";"i_visitor";"f_dead";7780
"201910";"total";"i_buyer";"f_unsubscribed";37
"201910";"total";"i_buyer";"f_dead";18023
"201910";"total";"i_buyer";"f_still_buyer";3089468
"201910";"total";"i_visitor";"f_still_visitor";233272
"201910";"total";"i_other";"f_new_subscriber";5338
"201910";"total";"i_other";"f_dead";1
"201910";"total";"i_subscriber";"f_new_buyer";582
"201910";"total";"i_other";"f_new_buyer";33158
"201910";"total";"i_visitor";"f_new_buyer";54442
"201910";"total";"i_subscriber";"f_still_subscriber";69654
"201910";"total";"i_buyer";"f_other";15
"201910";"vert_Deportes";"i_buyer";"f_other";6
"201910";"vert_Deportes";"i_buyer";"f_still_buyer";797248
"201910";"vert_Cinema";"i_subscriber";"f_new_buyer";21
"201910";"vert_Culture";"i_buyer";"f_still_buyer";444918
"201910";"vert_Musical";"i_subscriber";"f_still_subscriber";30
"201910";"vert_Culture";"i_buyer";"f_other";3
"201910";"vert_Deportes";"i_visitor";"f_still_visitor";4074
"201910";"vert_Cinema";"i_other";"f_new_buyer";51
"201910";"vert_Musical";"i_buyer";"f_unsubscribed";8
"201910";"vert_Culture";"i_subscriber";"f_new_buyer";97
"201910";"vert_Musical";"i_other";"f_new_subscriber";142
"201910";"vert_Musical";"i_subscriber";"f_new_buyer";308
"201910";"vert_Culture";"i_visitor";"f_new_buyer";223
"201910";"vert_Cinema";"i_buyer";"f_dead";40
"201910";"vert_Cinema";"i_visitor";"f_still_visitor";6032
"201910";"vert_Culture";"i_other";"f_new_subscriber";42
"201910";"vert_Deportes";"i_other";"f_new_buyer";312
"201910";"vert_Deportes";"i_subscriber";"f_new_buyer";15
"201910";"vert_Deportes";"i_other";"f_new_subscriber";1
"201910";"vert_Cinema";"i_buyer";"f_still_buyer";703010
"201910";"vert_Musical";"i_other";"f_unsubscribed";1
"201910";"vert_Musical";"i_visitor";"f_new_buyer";1050
"201910";"vert_Musical";"i_buyer";"f_dead";5140
"201910";"vert_Culture";"i_subscriber";"f_still_subscriber";17
"201910";"vert_Deportes";"i_visitor";"f_new_buyer";6376
"201910";"vert_Cinema";"i_visitor";"f_new_buyer";46186
"201910";"vert_Culture";"i_buyer";"f_dead";3790
"201910";"vert_Culture";"i_visitor";"f_dead";1
"201910";"vert_Cinema";"i_subscriber";"f_still_subscriber";3
"201910";"vert_Musical";"i_visitor";"f_still_visitor";65
"201910";"vert_Musical";"i_buyer";"f_other";4
"201910";"vert_Musical";"i_other";"f_new_buyer";15148
"201910";"vert_Culture";"i_visitor";"f_still_visitor";19
"201910";"vert_Deportes";"i_buyer";"f_dead";7073
"201910";"vert_Culture";"i_other";"f_new_buyer";5134
"201910";"vert_Musical";"i_buyer";"f_still_buyer";752527
"201910";"vert_Culture";"i_buyer";"f_unsubscribed";16
"201910";"active";"i_buyer";"f_inactive";2887375
"201910";"active";"i_buyer";"f_active";290053
"201910";"active";"i_subscriber";"f_inactive";52075
"201910";"active";"i_subscriber";"f_active";22922
"201910";"active";"i_visitor";"f_inactive";232734
"201910";"active";"i_visitor";"f_active";538
"201910";"active";"i_subscriber";"lifetime";106,144349495919
"201910";"active";"i_buyer";"lifetime";429,330664011429
"201910";"recurrence";"pct";"1";0,806308514257366
"201910";"recurrence";"pct";"2";0,243645117052875
"201910";"recurrence";"pct";"3";0,105172830870998
"201910";"recurrence";"day";"2";332,141304680377
"201910";"recurrence";"day";"23";236,253765312
"201910";"recurrence";"day";"3";216,142644801876
"201910";"kino";"i_knh";"f_still_knh";710805
"201910";"kino";"i_knh";"f_new_knh";44923
"201910";"kino";"other";"f_dead";6
"201910";"kino";"i_knh";"f_conv_knh->web";1774
"201910";"kino";"i_knh";"f_dead";3
"201910";"kino";"i_knh->web";"f_knh->web";38274
"201910";"kino";"other";"f_new_knh";8684
"201910";"orders_user";"Deportes";"f_0";4,1119493562436
"201910";"orders_user";"Musical";"f_0";1,46814628676483
"201910";"orders_user";"Culture";"f_0";1,83743186601666
"201910";"orders_user";"Cinema";"f_0";1,70371972318339
"201910";"orders_user";"Música";"f_0";1,66639949318708
"201910";"orders_user";"Otros";"f_0";1,58050971066892
"201910";"gen_nl";"i_other";"f_unsubscribed";1
"201910";"gen_nl";"i_subscriber";"f_still_subscriber";4432
"201910";"gen_nl";"i_buyer";"f_dead";1
"201910";"gen_nl";"i_buyer";"f_still_buyer";249685
"201910";"gen_nl";"i_subscriber";"f_new_buyer";152
"201910";"gen_nl";"i_other";"f_new_buyer";11979
"201910";"gen_nl";"i_other";"f_new_subscriber";1417
"201910";"gen_nl";"i_buyer";"f_unsubscribed";5
"201910";"Musicales & Shows";"i_other";"f_unsubscribed";2
"201910";"Musicales & Shows";"i_buyer";"f_unsubscribed";2
"201910";"Musicales & Shows";"i_other";"f_new_buyer";10
"201910";"Musicales & Shows";"i_subscriber";"f_dead";13
"201910";"Musicales & Shows";"i_subscriber";"f_still_subscriber";949
"201910";"Musicales & Shows";"i_buyer";"f_dead";5
"201910";"Musicales & Shows";"i_other";"f_new_subscriber";6
"201910";"Musicales & Shows";"i_buyer";"f_still_buyer";2534
"201910";"Musicales & Shows";"i_subscriber";"f_new_buyer";3
"201910";"Conciertos y festivales";"i_buyer";"f_unsubscribed";2
"201910";"Conciertos y festivales";"i_buyer";"f_still_buyer";2641
"201910";"Conciertos y festivales";"i_other";"f_new_subscriber";14
"201910";"Conciertos y festivales";"i_subscriber";"f_still_subscriber";1089
"201910";"Conciertos y festivales";"i_subscriber";"f_new_buyer";2
"201910";"Conciertos y festivales";"i_other";"f_new_buyer";17
"201910";"Conciertos y festivales";"i_buyer";"f_dead";4
"201910";"Conciertos y festivales";"i_subscriber";"f_dead";18
"201910";"Infantil y Familiar";"i_subscriber";"f_new_buyer";2
"201910";"Infantil y Familiar";"i_subscriber";"f_still_subscriber";167
"201910";"Infantil y Familiar";"i_other";"f_new_buyer";10
"201910";"Infantil y Familiar";"i_other";"f_new_subscriber";8
"201910";"Infantil y Familiar";"i_buyer";"f_still_buyer";473
"201910";"Infantil y Familiar";"i_buyer";"f_unsubscribed";1
"201910";"Teatro";"i_subscriber";"f_new_buyer";2
"201910";"Teatro";"i_buyer";"f_unsubscribed";2
"201910";"Teatro";"i_other";"f_new_subscriber";17
"201910";"Teatro";"i_buyer";"f_still_buyer";2542
"201910";"Teatro";"i_subscriber";"f_dead";15
"201910";"Teatro";"i_subscriber";"f_still_subscriber";817
"201910";"Teatro";"i_buyer";"f_dead";5
"201910";"Teatro";"i_other";"f_new_buyer";15
"201910";"Deportes";"i_subscriber";"f_dead";16
"201910";"Deportes";"i_subscriber";"f_still_subscriber";758
"201910";"Deportes";"i_buyer";"f_still_buyer";1163
"201910";"Deportes";"i_subscriber";"f_new_buyer";1
"201910";"Deportes";"i_other";"f_new_subscriber";12
"201910";"Deportes";"i_other";"f_new_buyer";8
"201910";"Deportes";"i_buyer";"f_unsubscribed";1
"201910";"otb";"i_otb";"f_dead";8846
"201910";"otb";"i_otb";"f_more";9162
"201910";"otb";"i_otb";"f_new_otb";162
"201910";"otb";"i_otb";"f_otb";1122329
"201910";"otb";"i_otb";"other";10
"201910";"otb";"i_zero";"f_new_otb";31804
"201910";"otb";"i_zero";"f_otb";1259
"201910";"otb";"day_order_2";"f_0";524,547631441957
