"month";"genre";"i_status";"f_status";"count"
"201907";"total";"i_other";"f_unsubscribed";10
"201907";"total";"i_visitor";"f_new_buyer";41093
"201907";"total";"i_other";"f_new_buyer";22824
"201907";"total";"i_visitor";"f_dead";5267
"201907";"total";"i_subscriber";"f_new_buyer";364
"201907";"total";"i_subscriber";"f_still_subscriber";61268
"201907";"total";"i_visitor";"f_other";1
"201907";"total";"i_buyer";"f_unsubscribed";17
"201907";"total";"i_other";"f_new_subscriber";4468
"201907";"total";"i_other";"f_dead";4
"201907";"total";"i_buyer";"f_still_buyer";2955374
"201907";"total";"i_subscriber";"f_dead";56
"201907";"total";"i_visitor";"f_still_visitor";285532
"201907";"total";"i_subscriber";"f_unsubscribed";1
"201907";"total";"i_buyer";"f_dead";10425
"201907";"active";"i_buyer";"f_inactive";2139822
"201907";"active";"i_buyer";"f_active";879824
"201907";"active";"i_visitor";"f_inactive";283121
"201907";"active";"i_subscriber";"f_inactive";43459
"201907";"active";"i_visitor";"f_active";2411
"201907";"active";"i_subscriber";"f_active";22284
"201907";"active";"i_subscriber";"lifetime";113,032950597115
"201907";"active";"i_buyer";"lifetime";389,453611094755
"201907";"recurrence";"pct";"1";0,792498852776589
"201907";"recurrence";"pct";"2";0,213329878097338
"201907";"recurrence";"pct";"3";0,0842913327106282
"201907";"recurrence";"day";"2";312,382370290055
"201907";"recurrence";"day";"23";237,571994529815
"201907";"recurrence";"day";"3";213,917701895774
"201907";"kino";"i_knh";"f_new_knh";32863
"201907";"kino";"i_knh";"f_still_knh";673493
"201907";"kino";"i_knh";"f_dead";1
"201907";"kino";"other";"f_new_knh";5242
"201907";"kino";"i_knh";"f_conv_knh->web";1398
"201907";"kino";"i_knh->web";"f_knh->web";30591
"201907";"orders_user";"Musical";"f_0";1,42254767911593
"201907";"orders_user";"Culture";"f_0";1,73788689484649
"201907";"orders_user";"Música";"f_0";1,53327392823298
"201907";"orders_user";"Otros";"f_0";1,48365093739764
"201907";"orders_user";"Cinema";"f_0";1,68766066838046
"201907";"orders_user";"Deportes";"f_0";1,65123137615382
"201907";"gen_nl";"i_other";"f_new_buyer";7645
"201907";"gen_nl";"i_subscriber";"f_still_subscriber";2144
"201907";"gen_nl";"i_other";"f_new_subscriber";800
"201907";"gen_nl";"i_buyer";"f_still_buyer";225845
"201907";"gen_nl";"i_subscriber";"f_new_buyer";53
"201907";"Musicales & Shows";"i_buyer";"f_still_buyer";2447
"201907";"Musicales & Shows";"i_subscriber";"f_dead";8
"201907";"Musicales & Shows";"i_other";"f_new_buyer";10
"201907";"Musicales & Shows";"i_buyer";"f_dead";8
"201907";"Musicales & Shows";"i_other";"f_new_subscriber";6
"201907";"Musicales & Shows";"i_subscriber";"f_still_subscriber";985
"201907";"Musicales & Shows";"i_subscriber";"f_new_buyer";2
"201907";"Conciertos y festivales";"i_subscriber";"f_still_subscriber";1152
"201907";"Conciertos y festivales";"i_subscriber";"f_dead";13
"201907";"Conciertos y festivales";"i_buyer";"f_still_buyer";2520
"201907";"Conciertos y festivales";"i_buyer";"f_unsubscribed";2
"201907";"Conciertos y festivales";"i_other";"f_new_subscriber";5
"201907";"Conciertos y festivales";"i_subscriber";"f_new_buyer";2
"201907";"Conciertos y festivales";"i_buyer";"f_dead";7
"201907";"Conciertos y festivales";"i_other";"f_new_buyer";8
"201907";"Infantil y Familiar";"i_other";"f_new_buyer";8
"201907";"Infantil y Familiar";"i_buyer";"f_still_buyer";417
"201907";"Infantil y Familiar";"i_subscriber";"f_still_subscriber";153
"201907";"Infantil y Familiar";"i_other";"f_new_subscriber";4
"201907";"Infantil y Familiar";"i_subscriber";"f_new_buyer";1
"201907";"Teatro";"i_other";"f_new_subscriber";8
"201907";"Teatro";"i_other";"f_new_buyer";10
"201907";"Teatro";"i_buyer";"f_dead";7
"201907";"Teatro";"i_subscriber";"f_dead";11
"201907";"Teatro";"i_buyer";"f_still_buyer";2442
"201907";"Teatro";"i_subscriber";"f_new_buyer";2
"201907";"Teatro";"i_subscriber";"f_still_subscriber";852
"201907";"Deportes";"i_other";"f_new_subscriber";13
"201907";"Deportes";"i_subscriber";"f_still_subscriber";908
"201907";"Deportes";"i_other";"f_new_buyer";5
"201907";"Deportes";"i_subscriber";"f_dead";5
"201907";"Deportes";"i_buyer";"f_still_buyer";972
"201907";"Deportes";"i_buyer";"f_dead";2
"201907";"otb";"i_otb";"f_dead";4974
"201907";"otb";"i_otb";"f_more";6276
"201907";"otb";"i_otb";"f_otb";1137685
"201907";"otb";"i_zero";"f_new_otb";21997
"201907";"otb";"i_zero";"f_otb";953
"201907";"otb";"day_order_2";"f_0";486,62854969574
